<svg width="264" height="214" viewBox="0 0 264 214" fill="none" xmlns="http://www.w3.org/2000/svg">
<rect x="94.0342" y="10.5878" width="75.9297" height="47.6224" rx="3" stroke="#F07824" stroke-width="19.4516"/>
<rect x="8.31934" y="39.9485" width="247.362" height="173.464" fill="#F07824"/>
<path d="M3.55469 39.9485H260.445L260.294 65.2005C260.267 69.7381 259.006 74.1828 256.645 78.0579L225.952 128.44C217.966 141.549 203.726 149.549 188.376 149.549H79.0479C64.9089 149.549 51.6314 142.754 43.3608 131.286L8.27795 82.6418C5.20721 78.384 3.55469 73.2676 3.55469 68.018V39.9485Z" fill="white"/>
<rect x="101.924" y="131.682" width="60.1516" height="35.7323" rx="3" fill="#0E4095"/>
<circle cx="132" cy="149.549" r="9.95072" fill="#F07824"/>
</svg>
