<svg width="264" height="255" viewBox="0 0 264 255" fill="none" xmlns="http://www.w3.org/2000/svg">
<path fill-rule="evenodd" clip-rule="evenodd" d="M132.033 212.172C178.469 212.172 216.143 220.007 216.143 229.679C216.143 239.337 178.474 247.172 132.033 247.172C85.5263 247.172 47.8564 239.337 47.8564 229.679C47.8523 220.006 85.5263 212.172 132.033 212.172Z" stroke="#F07824" stroke-width="15"/>
<path d="M122.076 226.543L122.048 226.499C118.08 220.343 112.148 211.716 105.37 201.861C99.4374 193.234 92.8569 183.665 86.3802 173.988C79.5037 163.713 72.802 153.397 67.2953 144.199C61.8402 135.087 57.3773 126.778 55.1599 120.605L122.076 226.543ZM122.076 226.543L122.106 226.586M122.076 226.543L122.106 226.586M122.106 226.586C123.31 228.372 124.585 230.037 125.984 231.292C127.392 232.554 129.407 233.828 132.001 233.828C134.594 233.828 136.61 232.554 138.017 231.292C139.417 230.037 140.692 228.372 141.896 226.586L141.925 226.543M122.106 226.586L141.925 226.543M141.925 226.543L141.953 226.499M141.925 226.543L141.953 226.499M141.953 226.499C145.924 220.338 151.861 211.704 158.644 201.841C164.574 193.219 171.149 183.658 177.62 173.989C184.497 163.714 191.199 153.398 196.706 144.2C202.161 135.088 206.624 126.778 208.841 120.605C228.449 66.0849 189.614 4.44363 132 5.85129M141.953 226.499L132 5.85129M132 5.85129C74.3864 4.44365 35.5508 66.0834 55.1592 120.603L132 5.85129Z" fill="white" stroke="#183E98" stroke-width="10"/>
<path fill-rule="evenodd" clip-rule="evenodd" d="M132.017 48.8796C154.912 48.8796 173.487 67.5257 173.487 90.543C173.487 113.525 154.914 132.172 132.017 132.172C109.087 132.172 90.5137 113.525 90.5137 90.543C90.5116 67.5237 109.087 48.8796 132.017 48.8796Z" fill="#183E98"/>
<path fill-rule="evenodd" clip-rule="evenodd" d="M132.009 66.253C145.354 66.253 156.18 77.1205 156.18 90.5356C156.18 103.931 145.355 114.798 132.009 114.798C118.645 114.798 107.82 103.931 107.82 90.5356C107.819 77.1193 118.645 66.253 132.009 66.253Z" fill="#F07824"/>
</svg>
