<svg width="64" height="64" viewBox="0 0 64 64" fill="none" xmlns="http://www.w3.org/2000/svg">
<path fill-rule="evenodd" clip-rule="evenodd" d="M39.7206 26.461L44.9705 7.98335C23.1833 -8.64654 5.88482 59.2984 31.8457 58.137L37.0956 39.6593L26.5958 42.299C24.9421 34.8287 26.5958 23.8213 31.8457 18.542L39.7206 26.461Z" fill="#183E98"/>
</svg>
